Prueba_Proyecto/simulation/qsim/prueba.msim.vcd
$comment
	File created using the following command:
		vcd file prueba.msim.vcd -direction
$end
$date
	Thu Jan 17 09:48:54 2019
$end
$version
	ModelSim Version 10.5b
$end
$timescale
	1ps
$end

$scope module diagrama_prueba_vhd_vec_tst $end
$var wire 1 ! Acumulado_J1 [4] $end
$var wire 1 " Acumulado_J1 [3] $end
$var wire 1 # Acumulado_J1 [2] $end
$var wire 1 $ Acumulado_J1 [1] $end
$var wire 1 % Acumulado_J1 [0] $end
$var wire 1 & Acumulado_J2 [4] $end
$var wire 1 ' Acumulado_J2 [3] $end
$var wire 1 ( Acumulado_J2 [2] $end
$var wire 1 ) Acumulado_J2 [1] $end
$var wire 1 * Acumulado_J2 [0] $end
$var wire 1 + Fin_J1 $end
$var wire 1 , Fin_J2 $end
$var wire 1 - J1 $end
$var wire 1 . J2 $end
$var wire 1 / Led_J1 $end
$var wire 1 0 Led_J2 $end
$var wire 1 1 Numero_J1 [4] $end
$var wire 1 2 Numero_J1 [3] $end
$var wire 1 3 Numero_J1 [2] $end
$var wire 1 4 Numero_J1 [1] $end
$var wire 1 5 Numero_J1 [0] $end
$var wire 1 6 Numero_J2 [4] $end
$var wire 1 7 Numero_J2 [3] $end
$var wire 1 8 Numero_J2 [2] $end
$var wire 1 9 Numero_J2 [1] $end
$var wire 1 : Numero_J2 [0] $end
$var wire 1 ; reloj_in $end
$var wire 1 < reset $end
$var wire 1 = Start $end

$scope module i1 $end
$var wire 1 > gnd $end
$var wire 1 ? vcc $end
$var wire 1 @ unknown $end
$var wire 1 A devoe $end
$var wire 1 B devclrn $end
$var wire 1 C devpor $end
$var wire 1 D ww_devoe $end
$var wire 1 E ww_devclrn $end
$var wire 1 F ww_devpor $end
$var wire 1 G ww_Led_J1 $end
$var wire 1 H ww_reloj_in $end
$var wire 1 I ww_reset $end
$var wire 1 J ww_Start $end
$var wire 1 K ww_J1 $end
$var wire 1 L ww_J2 $end
$var wire 1 M ww_Led_J2 $end
$var wire 1 N ww_Fin_J1 $end
$var wire 1 O ww_Fin_J2 $end
$var wire 1 P ww_Acumulado_J1 [4] $end
$var wire 1 Q ww_Acumulado_J1 [3] $end
$var wire 1 R ww_Acumulado_J1 [2] $end
$var wire 1 S ww_Acumulado_J1 [1] $end
$var wire 1 T ww_Acumulado_J1 [0] $end
$var wire 1 U ww_Acumulado_J2 [4] $end
$var wire 1 V ww_Acumulado_J2 [3] $end
$var wire 1 W ww_Acumulado_J2 [2] $end
$var wire 1 X ww_Acumulado_J2 [1] $end
$var wire 1 Y ww_Acumulado_J2 [0] $end
$var wire 1 Z ww_Numero_J1 [4] $end
$var wire 1 [ ww_Numero_J1 [3] $end
$var wire 1 \ ww_Numero_J1 [2] $end
$var wire 1 ] ww_Numero_J1 [1] $end
$var wire 1 ^ ww_Numero_J1 [0] $end
$var wire 1 _ ww_Numero_J2 [4] $end
$var wire 1 ` ww_Numero_J2 [3] $end
$var wire 1 a ww_Numero_J2 [2] $end
$var wire 1 b ww_Numero_J2 [1] $end
$var wire 1 c ww_Numero_J2 [0] $end
$var wire 1 d \DIV|CLOCK_100Hz~clkctrl_INCLK_bus\ [3] $end
$var wire 1 e \DIV|CLOCK_100Hz~clkctrl_INCLK_bus\ [2] $end
$var wire 1 f \DIV|CLOCK_100Hz~clkctrl_INCLK_bus\ [1] $end
$var wire 1 g \DIV|CLOCK_100Hz~clkctrl_INCLK_bus\ [0] $end
$var wire 1 h \DIV|CLOCK_100KHz~clkctrl_INCLK_bus\ [3] $end
$var wire 1 i \DIV|CLOCK_100KHz~clkctrl_INCLK_bus\ [2] $end
$var wire 1 j \DIV|CLOCK_100KHz~clkctrl_INCLK_bus\ [1] $end
$var wire 1 k \DIV|CLOCK_100KHz~clkctrl_INCLK_bus\ [0] $end
$var wire 1 l \DIV|clock_10Khz_int~clkctrl_INCLK_bus\ [3] $end
$var wire 1 m \DIV|clock_10Khz_int~clkctrl_INCLK_bus\ [2] $end
$var wire 1 n \DIV|clock_10Khz_int~clkctrl_INCLK_bus\ [1] $end
$var wire 1 o \DIV|clock_10Khz_int~clkctrl_INCLK_bus\ [0] $end
$var wire 1 p \DIV|clock_100Khz_int~clkctrl_INCLK_bus\ [3] $end
$var wire 1 q \DIV|clock_100Khz_int~clkctrl_INCLK_bus\ [2] $end
$var wire 1 r \DIV|clock_100Khz_int~clkctrl_INCLK_bus\ [1] $end
$var wire 1 s \DIV|clock_100Khz_int~clkctrl_INCLK_bus\ [0] $end
$var wire 1 t \DIV|clock_1Khz_int~clkctrl_INCLK_bus\ [3] $end
$var wire 1 u \DIV|clock_1Khz_int~clkctrl_INCLK_bus\ [2] $end
$var wire 1 v \DIV|clock_1Khz_int~clkctrl_INCLK_bus\ [1] $end
$var wire 1 w \DIV|clock_1Khz_int~clkctrl_INCLK_bus\ [0] $end
$var wire 1 x \DIV|clock_1Mhz_int~clkctrl_INCLK_bus\ [3] $end
$var wire 1 y \DIV|clock_1Mhz_int~clkctrl_INCLK_bus\ [2] $end
$var wire 1 z \DIV|clock_1Mhz_int~clkctrl_INCLK_bus\ [1] $end
$var wire 1 { \DIV|clock_1Mhz_int~clkctrl_INCLK_bus\ [0] $end
$var wire 1 | \reloj_in~inputclkctrl_INCLK_bus\ [3] $end
$var wire 1 } \reloj_in~inputclkctrl_INCLK_bus\ [2] $end
$var wire 1 ~ \reloj_in~inputclkctrl_INCLK_bus\ [1] $end
$var wire 1 !! \reloj_in~inputclkctrl_INCLK_bus\ [0] $end
$var wire 1 "! \Led_J1~output_o\ $end
$var wire 1 #! \Led_J2~output_o\ $end
$var wire 1 $! \Fin_J1~output_o\ $end
$var wire 1 %! \Fin_J2~output_o\ $end
$var wire 1 &! \Acumulado_J1[4]~output_o\ $end
$var wire 1 '! \Acumulado_J1[3]~output_o\ $end
$var wire 1 (! \Acumulado_J1[2]~output_o\ $end
$var wire 1 )! \Acumulado_J1[1]~output_o\ $end
$var wire 1 *! \Acumulado_J1[0]~output_o\ $end
$var wire 1 +! \Acumulado_J2[4]~output_o\ $end
$var wire 1 ,! \Acumulado_J2[3]~output_o\ $end
$var wire 1 -! \Acumulado_J2[2]~output_o\ $end
$var wire 1 .! \Acumulado_J2[1]~output_o\ $end
$var wire 1 /! \Acumulado_J2[0]~output_o\ $end
$var wire 1 0! \Numero_J1[4]~output_o\ $end
$var wire 1 1! \Numero_J1[3]~output_o\ $end
$var wire 1 2! \Numero_J1[2]~output_o\ $end
$var wire 1 3! \Numero_J1[1]~output_o\ $end
$var wire 1 4! \Numero_J1[0]~output_o\ $end
$var wire 1 5! \Numero_J2[4]~output_o\ $end
$var wire 1 6! \Numero_J2[3]~output_o\ $end
$var wire 1 7! \Numero_J2[2]~output_o\ $end
$var wire 1 8! \Numero_J2[1]~output_o\ $end
$var wire 1 9! \Numero_J2[0]~output_o\ $end
$var wire 1 :! \reloj_in~input_o\ $end
$var wire 1 ;! \reloj_in~inputclkctrl_outclk\ $end
$var wire 1 <! \DIV|count_1Mhz[0]~6_combout\ $end
$var wire 1 =! \DIV|count_1Mhz[2]~11\ $end
$var wire 1 >! \DIV|count_1Mhz[3]~12_combout\ $end
$var wire 1 ?! \DIV|count_1Mhz[3]~13\ $end
$var wire 1 @! \DIV|count_1Mhz[4]~14_combout\ $end
$var wire 1 A! \DIV|count_1Mhz[4]~15\ $end
$var wire 1 B! \DIV|count_1Mhz[5]~16_combout\ $end
$var wire 1 C! \DIV|LessThan0~0_combout\ $end
$var wire 1 D! \DIV|LessThan0~1_combout\ $end
$var wire 1 E! \DIV|count_1Mhz[0]~7\ $end
$var wire 1 F! \DIV|count_1Mhz[1]~8_combout\ $end
$var wire 1 G! \DIV|count_1Mhz[1]~9\ $end
$var wire 1 H! \DIV|count_1Mhz[2]~10_combout\ $end
$var wire 1 I! \DIV|LessThan1~0_combout\ $end
$var wire 1 J! \DIV|clock_1Mhz_int~q\ $end
$var wire 1 K! \DIV|clock_1Mhz_int~clkctrl_outclk\ $end
$var wire 1 L! \DIV|count_100Khz[1]~1_combout\ $end
$var wire 1 M! \DIV|count_100Khz~2_combout\ $end
$var wire 1 N! \DIV|count_100Khz~0_combout\ $end
$var wire 1 O! \DIV|clock_100Khz_int~0_combout\ $end
$var wire 1 P! \DIV|clock_100Khz_int~feeder_combout\ $end
$var wire 1 Q! \DIV|clock_100Khz_int~q\ $end
$var wire 1 R! \DIV|CLOCK_100KHz~feeder_combout\ $end
$var wire 1 S! \DIV|CLOCK_100KHz~q\ $end
$var wire 1 T! \DIV|CLOCK_100KHz~clkctrl_outclk\ $end
$var wire 1 U! \Aleatorio_J1|Add0~0_combout\ $end
$var wire 1 V! \Aleatorio_J2|Add0~0_combout\ $end
$var wire 1 W! \DIV|clock_100Khz_int~clkctrl_outclk\ $end
$var wire 1 X! \DIV|count_10Khz[1]~1_combout\ $end
$var wire 1 Y! \DIV|count_10Khz~2_combout\ $end
$var wire 1 Z! \DIV|count_10Khz~0_combout\ $end
$var wire 1 [! \DIV|clock_10Khz_int~0_combout\ $end
$var wire 1 \! \DIV|clock_10Khz_int~feeder_combout\ $end
$var wire 1 ]! \DIV|clock_10Khz_int~q\ $end
$var wire 1 ^! \DIV|clock_10Khz_int~clkctrl_outclk\ $end
$var wire 1 _! \DIV|count_1Khz[1]~1_combout\ $end
$var wire 1 `! \DIV|count_1Khz~2_combout\ $end
$var wire 1 a! \DIV|count_1Khz~0_combout\ $end
$var wire 1 b! \DIV|clock_1Khz_int~0_combout\ $end
$var wire 1 c! \DIV|clock_1Khz_int~feeder_combout\ $end
$var wire 1 d! \DIV|clock_1Khz_int~q\ $end
$var wire 1 e! \DIV|clock_1Khz_int~clkctrl_outclk\ $end
$var wire 1 f! \DIV|count_100hz~0_combout\ $end
$var wire 1 g! \DIV|count_100hz[1]~1_combout\ $end
$var wire 1 h! \DIV|count_100hz~2_combout\ $end
$var wire 1 i! \DIV|clock_100hz_int~0_combout\ $end
$var wire 1 j! \DIV|clock_100hz_int~feeder_combout\ $end
$var wire 1 k! \DIV|clock_100hz_int~q\ $end
$var wire 1 l! \DIV|CLOCK_100Hz~feeder_combout\ $end
$var wire 1 m! \DIV|CLOCK_100Hz~q\ $end
$var wire 1 n! \DIV|CLOCK_100Hz~clkctrl_outclk\ $end
$var wire 1 o! \J2~input_o\ $end
$var wire 1 p! \inst4|SHIFT_PB[3]~0_combout\ $end
$var wire 1 q! \inst4|SHIFT_PB[2]~feeder_combout\ $end
$var wire 1 r! \inst4|SHIFT_PB[1]~feeder_combout\ $end
$var wire 1 s! \inst4|SHIFT_PB[0]~feeder_combout\ $end
$var wire 1 t! \inst4|Equal0~0_combout\ $end
$var wire 1 u! \inst4|PB_SIN_REBOTE~q\ $end
$var wire 1 v! \Start~input_o\ $end
$var wire 1 w! \inst2|SHIFT_PB[3]~0_combout\ $end
$var wire 1 x! \inst2|SHIFT_PB[2]~feeder_combout\ $end
$var wire 1 y! \inst2|SHIFT_PB[1]~feeder_combout\ $end
$var wire 1 z! \inst2|SHIFT_PB[0]~feeder_combout\ $end
$var wire 1 {! \inst2|Equal0~0_combout\ $end
$var wire 1 |! \inst2|PB_SIN_REBOTE~q\ $end
$var wire 1 }! \J1~input_o\ $end
$var wire 1 ~! \inst3|SHIFT_PB[3]~0_combout\ $end
$var wire 1 !" \inst3|SHIFT_PB[2]~feeder_combout\ $end
$var wire 1 "" \inst3|SHIFT_PB[1]~feeder_combout\ $end
$var wire 1 #" \inst3|SHIFT_PB[0]~feeder_combout\ $end
$var wire 1 $" \inst3|Equal0~0_combout\ $end
$var wire 1 %" \inst3|PB_SIN_REBOTE~q\ $end
$var wire 1 &" \mss|A1~0_combout\ $end
$var wire 1 '" \reset~input_o\ $end
$var wire 1 (" \inst1|SHIFT_PB[3]~0_combout\ $end
$var wire 1 )" \inst1|SHIFT_PB[2]~feeder_combout\ $end
$var wire 1 *" \inst1|SHIFT_PB[1]~feeder_combout\ $end
$var wire 1 +" \inst1|SHIFT_PB[0]~feeder_combout\ $end
$var wire 1 ," \inst1|Equal0~0_combout\ $end
$var wire 1 -" \inst1|PB_SIN_REBOTE~q\ $end
$var wire 1 ." \mss|y.Te~q\ $end
$var wire 1 /" \mss|y~21_combout\ $end
$var wire 1 0" \mss|y.Tf~q\ $end
$var wire 1 1" \mss|y.Tg~q\ $end
$var wire 1 2" \Aleatorio_J1|Add0~7\ $end
$var wire 1 3" \Aleatorio_J1|Add0~8_combout\ $end
$var wire 1 4" \Aleatorio_J1|Add0~1\ $end
$var wire 1 5" \Aleatorio_J1|Add0~2_combout\ $end
$var wire 1 6" \Aleatorio_J1|conteo~2_combout\ $end
$var wire 1 7" \Registro_J1|Q[0]~5_combout\ $end
$var wire 1 8" \Registro_J1|Q[0]~6\ $end
$var wire 1 9" \Registro_J1|Q[1]~7_combout\ $end
$var wire 1 :" \Registro_J1|Q[1]~8\ $end
$var wire 1 ;" \Registro_J1|Q[2]~9_combout\ $end
$var wire 1 <" \Registro_J1|Q[2]~10\ $end
$var wire 1 =" \Registro_J1|Q[3]~12\ $end
$var wire 1 >" \Registro_J1|Q[4]~13_combout\ $end
$var wire 1 ?" \mss|y~23_combout\ $end
$var wire 1 @" \mss|y.Th~q\ $end
$var wire 1 A" \Aleatorio_J2|Equal0~0_combout\ $end
$var wire 1 B" \Aleatorio_J2|Add0~1\ $end
$var wire 1 C" \Aleatorio_J2|Add0~2_combout\ $end
$var wire 1 D" \Aleatorio_J2|conteo~2_combout\ $end
$var wire 1 E" \Aleatorio_J2|Add0~3\ $end
$var wire 1 F" \Aleatorio_J2|Add0~4_combout\ $end
$var wire 1 G" \Aleatorio_J2|conteo~1_combout\ $end
$var wire 1 H" \Aleatorio_J2|Add0~5\ $end
$var wire 1 I" \Aleatorio_J2|Add0~6_combout\ $end
$var wire 1 J" \Aleatorio_J2|Add0~7\ $end
$var wire 1 K" \Aleatorio_J2|Add0~8_combout\ $end
$var wire 1 L" \Registro_J2|Q[0]~6\ $end
$var wire 1 M" \Registro_J2|Q[1]~7_combout\ $end
$var wire 1 N" \Registro_J2|Q[1]~8\ $end
$var wire 1 O" \Registro_J2|Q[2]~9_combout\ $end
$var wire 1 P" \Registro_J2|Q[2]~10\ $end
$var wire 1 Q" \Registro_J2|Q[3]~11_combout\ $end
$var wire 1 R" \Registro_J2|Q[3]~12\ $end
$var wire 1 S" \Registro_J2|Q[4]~13_combout\ $end
$var wire 1 T" \mss|y~24_combout\ $end
$var wire 1 U" \mss|y.Tt~q\ $end
$var wire 1 V" \mss|Selector0~0_combout\ $end
$var wire 1 W" \mss|y.Ta~q\ $end
$var wire 1 X" \mss|y~22_combout\ $end
$var wire 1 Y" \mss|y.Tb~q\ $end
$var wire 1 Z" \mss|Selector7~0_combout\ $end
$var wire 1 [" \Aleatorio_J2|conteo[4]~0_combout\ $end
$var wire 1 \" \Registro_J2|Q[0]~5_combout\ $end
$var wire 1 ]" \inst8|LessThan1~0_combout\ $end
$var wire 1 ^" \mss|y~19_combout\ $end
$var wire 1 _" \mss|y.Tc~q\ $end
$var wire 1 `" \Turno_inicial|conteo~0_combout\ $end
$var wire 1 a" \Turno_inicial|conteo~q\ $end
$var wire 1 b" \mss|Selector1~0_combout\ $end
$var wire 1 c" \mss|Selector1~1_combout\ $end
$var wire 1 d" \mss|y.Td~q\ $end
$var wire 1 e" \Aleatorio_J1|conteo[4]~0_combout\ $end
$var wire 1 f" \Aleatorio_J1|Equal0~0_combout\ $end
$var wire 1 g" \Aleatorio_J1|Add0~3\ $end
$var wire 1 h" \Aleatorio_J1|Add0~4_combout\ $end
$var wire 1 i" \Aleatorio_J1|conteo~1_combout\ $end
$var wire 1 j" \Aleatorio_J1|Add0~5\ $end
$var wire 1 k" \Aleatorio_J1|Add0~6_combout\ $end
$var wire 1 l" \Registro_J1|Q[3]~11_combout\ $end
$var wire 1 m" \inst7|LessThan1~0_combout\ $end
$var wire 1 n" \mss|Selector2~0_combout\ $end
$var wire 1 o" \mss|Selector2~1_combout\ $end
$var wire 1 p" \mss|y.Tp~q\ $end
$var wire 1 q" \mss|A2~0_combout\ $end
$var wire 1 r" \mss|y.Tq~q\ $end
$var wire 1 s" \mss|y~20_combout\ $end
$var wire 1 t" \mss|y.Tr~q\ $end
$var wire 1 u" \mss|y.Ts~q\ $end
$var wire 1 v" \mss|Selector3~0_combout\ $end
$var wire 1 w" \mss|Selector3~1_combout\ $end
$var wire 1 x" \mss|Selector4~0_combout\ $end
$var wire 1 y" \mss|Selector4~1_combout\ $end
$var wire 1 z" \inst7|LessThan1~1_combout\ $end
$var wire 1 {" \inst8|LessThan1~1_combout\ $end
$var wire 1 |" \inst1|SHIFT_PB\ [3] $end
$var wire 1 }" \inst1|SHIFT_PB\ [2] $end
$var wire 1 ~" \inst1|SHIFT_PB\ [1] $end
$var wire 1 !# \inst1|SHIFT_PB\ [0] $end
$var wire 1 "# \Aleatorio_J1|conteo\ [4] $end
$var wire 1 ## \Aleatorio_J1|conteo\ [3] $end
$var wire 1 $# \Aleatorio_J1|conteo\ [2] $end
$var wire 1 %# \Aleatorio_J1|conteo\ [1] $end
$var wire 1 &# \Aleatorio_J1|conteo\ [0] $end
$var wire 1 '# \Registro_J1|Q\ [4] $end
$var wire 1 (# \Registro_J1|Q\ [3] $end
$var wire 1 )# \Registro_J1|Q\ [2] $end
$var wire 1 *# \Registro_J1|Q\ [1] $end
$var wire 1 +# \Registro_J1|Q\ [0] $end
$var wire 1 ,# \inst3|SHIFT_PB\ [3] $end
$var wire 1 -# \inst3|SHIFT_PB\ [2] $end
$var wire 1 .# \inst3|SHIFT_PB\ [1] $end
$var wire 1 /# \inst3|SHIFT_PB\ [0] $end
$var wire 1 0# \Registro_J2|Q\ [4] $end
$var wire 1 1# \Registro_J2|Q\ [3] $end
$var wire 1 2# \Registro_J2|Q\ [2] $end
$var wire 1 3# \Registro_J2|Q\ [1] $end
$var wire 1 4# \Registro_J2|Q\ [0] $end
$var wire 1 5# \DIV|count_1Mhz\ [5] $end
$var wire 1 6# \DIV|count_1Mhz\ [4] $end
$var wire 1 7# \DIV|count_1Mhz\ [3] $end
$var wire 1 8# \DIV|count_1Mhz\ [2] $end
$var wire 1 9# \DIV|count_1Mhz\ [1] $end
$var wire 1 :# \DIV|count_1Mhz\ [0] $end
$var wire 1 ;# \Aleatorio_J2|conteo\ [4] $end
$var wire 1 <# \Aleatorio_J2|conteo\ [3] $end
$var wire 1 =# \Aleatorio_J2|conteo\ [2] $end
$var wire 1 ># \Aleatorio_J2|conteo\ [1] $end
$var wire 1 ?# \Aleatorio_J2|conteo\ [0] $end
$var wire 1 @# \inst2|SHIFT_PB\ [3] $end
$var wire 1 A# \inst2|SHIFT_PB\ [2] $end
$var wire 1 B# \inst2|SHIFT_PB\ [1] $end
$var wire 1 C# \inst2|SHIFT_PB\ [0] $end
$var wire 1 D# \inst4|SHIFT_PB\ [3] $end
$var wire 1 E# \inst4|SHIFT_PB\ [2] $end
$var wire 1 F# \inst4|SHIFT_PB\ [1] $end
$var wire 1 G# \inst4|SHIFT_PB\ [0] $end
$var wire 1 H# \DIV|count_100Khz\ [2] $end
$var wire 1 I# \DIV|count_100Khz\ [1] $end
$var wire 1 J# \DIV|count_100Khz\ [0] $end
$var wire 1 K# \DIV|count_100hz\ [2] $end
$var wire 1 L# \DIV|count_100hz\ [1] $end
$var wire 1 M# \DIV|count_100hz\ [0] $end
$var wire 1 N# \DIV|count_1Khz\ [2] $end
$var wire 1 O# \DIV|count_1Khz\ [1] $end
$var wire 1 P# \DIV|count_1Khz\ [0] $end
$var wire 1 Q# \DIV|count_10Khz\ [2] $end
$var wire 1 R# \DIV|count_10Khz\ [1] $end
$var wire 1 S# \DIV|count_10Khz\ [0] $end
$var wire 1 T# \mss|ALT_INV_Selector7~0_combout\ $end
$upscope $end
$upscope $end
$enddefinitions $end
#0
$dumpvars
0+
0,
0-
0.
0/
00
0;
0<
0=
0>
1?
x@
1A
1B
1C
1D
1E
1F
0G
0H
0I
0J
0K
0L
0M
0N
0O
0"!
0#!
0$!
0%!
0&!
0'!
0(!
0)!
0*!
0+!
0,!
0-!
0.!
0/!
00!
01!
02!
03!
04!
05!
06!
07!
08!
09!
0:!
0;!
1<!
0=!
0>!
1?!
0@!
0A!
0B!
1C!
0D!
0E!
0F!
1G!
0H!
0I!
0J!
0K!
0L!
0M!
1N!
0O!
0P!
0Q!
0R!
0S!
0T!
1U!
1V!
0W!
0X!
0Y!
1Z!
0[!
0\!
0]!
0^!
0_!
0`!
1a!
0b!
0c!
0d!
0e!
1f!
0g!
0h!
0i!
0j!
0k!
0l!
0m!
0n!
0o!
1p!
0q!
0r!
0s!
0t!
0u!
0v!
1w!
0x!
0y!
0z!
0{!
0|!
0}!
1~!
0!"
0""
0#"
0$"
0%"
0&"
0'"
1("
0)"
0*"
0+"
0,"
0-"
0."
0/"
00"
01"
12"
03"
04"
05"
06"
07"
08"
09"
1:"
0;"
0<"
1="
0>"
0?"
0@"
0A"
0B"
0C"
0D"
1E"
0F"
0G"
0H"
0I"
1J"
0K"
0L"
0M"
1N"
0O"
0P"
0Q"
1R"
0S"
0T"
0U"
0V"
0W"
0X"
0Y"
0Z"
0["
0\"
0]"
0^"
0_"
0`"
0a"
0b"
0c"
0d"
0e"
0f"
1g"
0h"
0i"
0j"
0k"
0l"
0m"
0n"
0o"
0p"
0q"
0r"
0s"
0t"
0u"
0v"
0w"
0x"
0y"
0z"
0{"
1T#
0P
0Q
0R
0S
0T
0U
0V
0W
0X
0Y
0Z
0[
0\
0]
0^
0_
0`
0a
0b
0c
0|"
0}"
0~"
0!#
0"#
0##
0$#
0%#
0&#
0'#
0(#
0)#
0*#
0+#
0,#
0-#
0.#
0/#
00#
01#
02#
03#
04#
05#
06#
07#
08#
09#
0:#
0;#
0<#
0=#
0>#
0?#
0@#
0A#
0B#
0C#
0D#
0E#
0F#
0G#
0H#
0I#
0J#
0K#
0L#
0M#
0N#
0O#
0P#
0Q#
0R#
0S#
1|
1}
1~
0!!
1x
1y
1z
0{
1h
1i
1j
0k
1p
1q
1r
0s
1l
1m
1n
0o
1t
1u
1v
0w
1d
1e
1f
0g
0!
0"
0#
0$
0%
0&
0'
0(
0)
0*
01
02
03
04
05
06
07
08
09
0:
$end
#5000
1;
1H
1:!
1!!
1;!
1:#
0<!
1E!
0C!
1F!
#10000
0;
0H
0:!
0!!
0;!
#15000
1;
1H
1:!
1!!
1;!
0:#
19#
0F!
0G!
1<!
0E!
1F!
1G!
1H!
0H!
#20000
0;
0H
0:!
0!!
0;!
#25000
1;
1H
1:!
1!!
1;!
1:#
0<!
1E!
0F!
0G!
1H!
#30000
0;
0H
0:!
0!!
0;!
#35000
1;
1H
1:!
1!!
1;!
0:#
09#
18#
0H!
1=!
1I!
1F!
1G!
1<!
0E!
0F!
1H!
0=!
1>!
0>!
#40000
0;
0H
0:!
0!!
0;!
#45000
1;
1H
1:!
1!!
1;!
1:#
1J!
1{
0<!
1E!
1F!
1K!
1J#
1L!
0N!
#50000
0;
0H
0:!
0!!
0;!
#55000
1;
1H
1:!
1!!
1;!
0:#
19#
0F!
0G!
1<!
0E!
1F!
1G!
0H!
1=!
1>!
1H!
0=!
0>!
#60000
0;
0H
0:!
0!!
0;!
#65000
1;
1H
1:!
1!!
1;!
1:#
0<!
1E!
0F!
0G!
0H!
1=!
1>!
#70000
0;
1<
0H
1I
1'"
0:!
0!!
0("
0;!
#75000
1;
1H
1:!
1!!
1;!
17#
0:#
09#
08#
1H!
0=!
1F!
1G!
1<!
0E!
0>!
0?!
1@!
0F!
0H!
1>!
1?!
0@!
#80000
0;
0H
0:!
0!!
0;!
#85000
1;
1H
1:!
1!!
1;!
1:#
0<!
1E!
1F!
#90000
0;
0H
0:!
0!!
0;!
#95000
1;
1H
1:!
1!!
1;!
0:#
19#
0F!
0G!
1<!
0E!
1F!
1G!
1H!
0H!
#100000
0;
0H
0:!
0!!
0;!
#105000
1;
1H
1:!
1!!
1;!
1:#
0<!
1E!
0F!
0G!
1H!
#110000
0;
1=
0H
1J
1v!
0:!
0!!
0w!
0;!
#115000
1;
1H
1:!
1!!
1;!
0:#
09#
18#
0H!
1=!
1F!
1G!
1<!
0E!
0F!
1H!
0=!
0>!
0?!
1@!
1>!
1?!
0@!
#120000
0;
0H
0:!
0!!
0;!
#125000
1;
1H
1:!
1!!
1;!
1:#
0<!
1E!
1F!
#130000
0;
0H
0:!
0!!
0;!
#135000
1;
1H
1:!
1!!
1;!
0:#
19#
0F!
0G!
1<!
0E!
1F!
1G!
0H!
1=!
0>!
0?!
1H!
0=!
1>!
1?!
1@!
0@!
#140000
0;
0H
0:!
0!!
0;!
#145000
1;
1H
1:!
1!!
1;!
1:#
0<!
1E!
0F!
0G!
0H!
1=!
0>!
0?!
1@!
#150000
0;
0H
0:!
0!!
0;!
#155000
1;
1H
1:!
1!!
1;!
07#
16#
0:#
09#
08#
1H!
0=!
1F!
1G!
1<!
0E!
0@!
1A!
1>!
1?!
1C!
1@!
0A!
1B!
0F!
0H!
0>!
0B!
#160000
0;
0H
0:!
0!!
0;!
#165000
1;
1H
1:!
1!!
1;!
1:#
0<!
1E!
0C!
1F!
#170000
0;
0=
0H
0J
0v!
0:!
0!!
1w!
0;!
#175000
1;
1H
1:!
1!!
1;!
0:#
19#
0F!
0G!
1<!
0E!
1F!
1G!
1H!
0H!
#180000
0;
0H
0:!
0!!
0;!
#185000
1;
1H
1:!
1!!
1;!
1:#
0<!
1E!
0F!
0G!
1H!
#190000
0;
0H
0:!
0!!
0;!
#195000
1;
1H
1:!
1!!
1;!
0:#
09#
18#
0H!
1=!
1F!
1G!
1<!
0E!
0F!
1H!
0=!
1>!
0>!
#200000
0;
1.
0H
1L
1o!
0:!
0!!
0p!
0;!
#205000
1;
1H
1:!
1!!
1;!
1:#
0<!
1E!
1F!
#210000
0;
0H
0:!
0!!
0;!
#215000
1;
1H
1:!
1!!
1;!
0:#
19#
0F!
0G!
1<!
0E!
1F!
1G!
0H!
1=!
1>!
1H!
0=!
0>!
#220000
0;
0H
0:!
0!!
0;!
#225000
1;
1H
1:!
1!!
1;!
1:#
0<!
1E!
0F!
0G!
0H!
1=!
1>!
#230000
0;
0H
0:!
0!!
0;!
#235000
1;
1H
1:!
1!!
1;!
17#
0:#
09#
08#
1H!
0=!
1F!
1G!
1<!
0E!
0>!
0?!
0@!
1A!
0F!
0H!
1>!
1?!
1@!
0A!
1B!
0B!
#240000
0;
0H
0:!
0!!
0;!
#245000
1;
1H
1:!
1!!
1;!
1:#
0<!
1E!
1F!
#250000
0;
0.
0H
0L
0o!
0:!
0!!
1p!
0;!
#255000
1;
1H
1:!
1!!
1;!
0:#
19#
0F!
0G!
1<!
0E!
1F!
1G!
1H!
0H!
#260000
0;
0H
0:!
0!!
0;!
#265000
1;
1H
1:!
1!!
1;!
1:#
0<!
1E!
0F!
0G!
1H!
#270000
0;
0H
0:!
0!!
0;!
#275000
1;
1H
1:!
1!!
1;!
0:#
09#
18#
0H!
1=!
1F!
1G!
1<!
0E!
0F!
1H!
0=!
0>!
0?!
0@!
1A!
1>!
1?!
1@!
0A!
1B!
0B!
#280000
0;
1-
0H
1K
1}!
0:!
0!!
0~!
0;!
#285000
1;
1H
1:!
1!!
1;!
1:#
0<!
1E!
1F!
#290000
0;
0H
0:!
0!!
0;!
#295000
1;
1H
1:!
1!!
1;!
0:#
19#
0F!
0G!
1<!
0E!
1F!
1G!
0H!
1=!
0>!
0?!
1H!
0=!
1>!
1?!
0@!
1A!
1B!
1@!
0A!
0B!
#300000
0;
0H
0:!
0!!
0;!
#305000
1;
1H
1:!
1!!
1;!
1:#
0<!
1E!
0F!
0G!
0H!
1=!
0>!
0?!
0@!
1A!
1B!
#310000
0;
0H
0:!
0!!
0;!
#315000
1;
1H
1:!
1!!
1;!
07#
06#
15#
0:#
09#
08#
1H!
0=!
1F!
1G!
1<!
0E!
0B!
1@!
0A!
1>!
1?!
1C!
0@!
1B!
0F!
0H!
0>!
#320000
0;
0H
0:!
0!!
0;!
#325000
1;
1H
1:!
1!!
1;!
1:#
0<!
1E!
0C!
1F!
#330000
0;
0H
0:!
0!!
0;!
#335000
1;
1H
1:!
1!!
1;!
0:#
19#
0F!
0G!
1<!
0E!
1F!
1G!
1H!
0H!
#340000
0;
0-
0H
0K
0}!
0:!
0!!
1~!
0;!
#345000
1;
1H
1:!
1!!
1;!
1:#
0<!
1E!
0F!
0G!
1H!
#350000
0;
0H
0:!
0!!
0;!
#355000
1;
1H
1:!
1!!
1;!
0:#
09#
18#
0H!
1=!
1F!
1G!
1<!
0E!
0F!
1H!
0=!
1>!
0>!
#360000
0;
0H
0:!
0!!
0;!
#365000
1;
1H
1:!
1!!
1;!
1:#
0<!
1E!
1F!
#370000
0;
0H
0:!
0!!
0;!
#375000
1;
1H
1:!
1!!
1;!
0:#
19#
0F!
0G!
1<!
0E!
1F!
1G!
0H!
1=!
1>!
1H!
0=!
0>!
#380000
0;
0H
0:!
0!!
0;!
#385000
1;
1H
1:!
1!!
1;!
1:#
0<!
1E!
0F!
0G!
0H!
1=!
1>!
#390000
0;
1.
0H
1L
1o!
0:!
0!!
0p!
0;!
#395000
1;
1H
1:!
1!!
1;!
17#
0:#
09#
08#
1H!
0=!
1F!
1G!
1<!
0E!
0>!
0?!
1@!
0F!
0H!
1>!
1?!
0@!
#400000
0;
0H
0:!
0!!
0;!
#405000
1;
1H
1:!
1!!
1;!
1:#
0<!
1E!
1F!
#410000
0;
0.
0H
0L
0o!
0:!
0!!
1p!
0;!
